{
	"builders": [
		{
			"type": "vmware-iso",
			"name": "fetus",
			"vm_name": "fetus-builder",
			"disk_type_id": "0",
			"headless": "false",
			"iso_url": "http://fedora.mirrors.ovh.net/linux/releases/22/Server/x86_64/iso/Fedora-Server-netinst-x86_64-22.iso",
			"iso_checksum": "9f1f2f19f75cc3b97da41878b5c86188fa8d27ed446bd97d9df615c137c77cfc",
			"iso_checksum_type": "sha256",
			"guest_os_type": "fedora-64",
			"http_directory": "http",
			"ssh_username": "packer",
			"ssh_password": "packer",
			"ssh_port": 22,
			"ssh_wait_timeout": "10000s",
			"tools_upload_flavor": "linux",
			"shutdown_command": "sudo systemctl poweroff",
			"boot_command": [
				"<esc>",
				"<wait>",
				"linux inst.ks=http://{{.HTTPIP}}:{{.HTTPPort}}/fetus-builder.ks inst.nodnf=1 biosdevname=0 net.ifnames=0",
				"<enter>"
			], 
			"boot_wait": "5s"
		}
	],

	"provisioners": [
		{
			"type": "file",
			"source": "chef-repo",
			"destination": "/home/packer"
		},
		{
			"type": "file",
			"source": "http/fetus-live.ks",
			"destination": "/home/packer/fetus-live.ks"
		},
    	{
      		"type": "shell",
      		"inline": [
      			"sudo dnf install -y git livecd-tools",
        		"sudo git clone https://matthieubonnard@bitbucket.org/matthieubonnard/chef-cookbooks.git /home/packer/chef-repo/cookbooks",
        		"sudo livecd-creator -c /home/packer/fetus-live.ks -f Fetus",
        		"sleep 99999999999"
      		]
    	}
  	]
}
