{
  "name": "base",
  "description": "Baseline configuration for all systems.",
  "default_attributes": {
    "resolver": {
      "nameservers": [
        "8.8.8.8",
        "8.8.4.4"
      ],
      "search": "cloud-temple.lan"
    },
    "ntp": {
      "servers": [
        "time.intrinsec.com"
      ]
    }
  },
  "run_list": [
    "recipe[ntp]",
    "recipe[resolver]",
    "recipe[vim]",
    "recipe[openssh]"
  ]
}